Introduction to Data Science for Transportation Researchers, Planners, and Engineers
…
There are two main differences in the usage of a tibble vs. a classic data.frame: printing and subsetting.

5.2.2 Printing

Tibbles have a refined print method that shows only the first 10 rows, and all the columns that fit on screen. This makes it much easier to work with large data. In addition to its name, each column reports its type, a nice feature borrowed from str():

tibble(
  a = lubridate::now() + runif(1e3) * 86400,
  b = lubridate::today() + runif(1e3) * 30,
  c = 1:1e3,
  d = runif(1e3),
  e = sample(letters, 1e3, replace = TRUE)
)

## # A tibble: 1,000 × 5
##                      a          b     c          d     e
##                 <dttm>     <date> <int>      <dbl> <chr>
## 1  2017-03-15 23:08:37 2017-03-31     1 0.44164995     f
## 2  2017-03-16 11:01:30 2017-04-08     2 0.28931246     i
## 3  2017-03-16 13:24:50 2017-03-19     3 0.80537528     t
## 4  2017-03-16 12:57:02 2017-03-22     4 0.78362343     s
## 5  2017-03-16 11:15:09 2017-03-21     5 0.44652774     c
## 6  2017-03-15 17:44:20 2017-03-20     6 0.05030366     x
## 7  2017-03-16 12:34:01 2017-04-02     7 0.00531911     j
## 8  2017-03-15 20:43:07 2017-03-29     8 0.01894151     i
## 9  2017-03-16 03:52:05 2017-04-09     9 0.01303142     v
## 10 2017-03-16 00:42:58 2017-03-26    10 0.44187446     n
## # ... with 990 more rows
…
heights <- read_csv("data/heights.csv")

## Parsed with column specification:
## cols(
##   earn = col_double(),
##   height = col_double(),
##   sex = col_character(),
##   ed = col_integer(),
##   age = col_integer(),
##   race = col_character()
## )

heights

## # A tibble: 1,192 × 6
##     earn   height    sex    ed   age     race
##    <dbl>    <dbl>  <chr> <int> <int>    <chr>
## 1  50000 74.42444   male    16    45    white
## 2  60000 65.53754 female    16    58    white
## 3  30000 63.62920 female    16    29    white
## 4  50000 63.10856 female    16    91    other
## 5  51000 63.40248 female    17    39    white
## 6   9000 64.39951 female    15    26    white
## 7  29000 61.65633 female    12    49    white
## 8  32000 72.69854   male    17    46    white
## 9   2000 72.03947   male    15    21 hispanic
## 10 27000 72.23493   male    12    26    white
## # ... with 1,182 more rows
…
Always encoding strings in UTF-8.

Saving dates and date-times in ISO8601 format so they are easily parsed elsewhere.

If you want to export a csv file to Excel, use write_excel_csv() — this writes a special character (a “byte order mark”) at the start of the file which tells Excel that you’re using the UTF-8 encoding.

The most important arguments are x (the data frame to save), and path (the location to save it). You can also specify how missing values are written with na, and if you want to append to an existing file.

write_csv(heights, "results/heights.csv")

Note that the type information is lost when you save to csv:

heights

## # A tibble: 1,192 × 6
##     earn   height    sex    ed   age     race
##    <dbl>    <dbl>  <chr> <int> <int>    <chr>
## 1  50000 74.42444   male    16    45    white
## 2  60000 65.53754 female    16    58    white
## 3  30000 63.62920 female    16    29    white
## 4  50000 63.10856 female    16    91    other
## 5  51000 63.40248 female    17    39    white
## 6   9000 64.39951 female    15    26    white
## 7  29000 61.65633 female    12    49    white
## 8  32000 72.69854   male    17    46    white
## 9   2000 72.03947   male    15    21 hispanic
## 10 27000 72.23493   male    12    26    white
## # ... with 1,182 more rows

write_csv(heights, "results/heights-2.csv")
read_csv("results/heights-2.csv")

## # A tibble: 1,192 × 6
##     earn   height    sex    ed   age     race
##    <dbl>    <dbl>  <chr> <int> <int>    <chr>
## 1  50000 74.42444   male    16    45    white
## 2  60000 65.53754 female    16    58    white
## 3  30000 63.62920 female    16    29    white
## 4  50000 63.10856 female    16    91    other
## 5  51000 63.40248 female    17    39    white
## 6   9000 64.39951 female    15    26    white
## 7  29000 61.65633 female    12    49    white
## 8  32000 72.69854   male    17    46    white
## 9   2000 72.03947   male    15    21 hispanic
## 10 27000 72.23493   male    12    26    white
## # ... with 1,182 more rows

This makes CSVs a little unreliable for caching interim results—you need to recreate the column specification every time you load in. There are two alternatives:

write_rds() and read_rds() are uniform wrappers around the base functions readRDS() and saveRDS(). These store data in R’s custom binary format called RDS:

write_rds(heights, "results/heights.rds")
read_rds("results/heights.rds")

## # A tibble: 1,192 × 6
##     earn   height    sex    ed   age     race
##    <dbl>    <dbl>  <chr> <int> <int>    <chr>
## 1  50000 74.42444   male    16    45    white
## 2  60000 65.53754 female    16    58    white
## 3  30000 63.62920 female    16    29    white
## 4  50000 63.10856 female    16    91    other
## 5  51000 63.40248 female    17    39    white
## 6   9000 64.39951 female    15    26    white
## 7  29000 61.65633 female    12    49    white
## 8  32000 72.69854   male    17    46    white
## 9   2000 72.03947   male    15    21 hispanic
## 10 27000 72.23493   male    12    26    white
## # ... with 1,182 more rows
…
