…
Tibbles have a refined print method that shows only the first 10 rows, and all the columns that fit on screen. This makes it much easier to work with large data. In addition to its name, each column reports its type, a nice feature borrowed from `str()`:


```r
tibble(
  a = lubridate::now() + runif(1e3) * 86400,
  b = lubridate::today() + runif(1e3) * 30,
  c = 1:1e3,
  d = runif(1e3),
  e = sample(letters, 1e3, replace = TRUE)
)
```

```
## # A tibble: 1,000 x 5
##                      a          b     c         d     e
##                 <dttm>     <date> <int>     <dbl> <chr>
##  1 2017-11-27 09:25:08 2017-12-07     1 0.3691793     i
##  2 2017-11-27 12:27:02 2017-12-11     2 0.8357064     w
##  3 2017-11-26 23:42:29 2017-12-14     3 0.3489976     a
##  4 2017-11-27 05:23:20 2017-12-16     4 0.2364787     h
##  5 2017-11-26 23:10:14 2017-12-19     5 0.5347933     j
##  6 2017-11-27 01:51:47 2017-12-10     6 0.1535821     k
##  7 2017-11-27 11:00:27 2017-12-16     7 0.4882053     o
##  8 2017-11-27 11:04:42 2017-12-07     8 0.2242546     e
##  9 2017-11-27 16:19:40 2017-12-13     9 0.6103028     a
## 10 2017-11-27 04:15:50 2017-12-08    10 0.6990164     a
## # ... with 990 more rows
```
…
```r
heights
```

```
## # A tibble: 1,192 x 6
##     earn   height    sex    ed   age     race
##    <dbl>    <dbl>  <chr> <int> <int>    <chr>
##  1 50000 74.42444   male    16    45    white
##  2 60000 65.53754 female    16    58    white
##  3 30000 63.62920 female    16    29    white
##  4 50000 63.10856 female    16    91    other
##  5 51000 63.40248 female    17    39    white
##  6  9000 64.39951 female    15    26    white
##  7 29000 61.65633 female    12    49    white
##  8 32000 72.69854   male    17    46    white
##  9  2000 72.03947   male    15    21 hispanic
## 10 27000 72.23493   male    12    26    white
## # ... with 1,182 more rows
```
…
