Introduction to Data Science for Transportation Researchers, Planners, and Engineers
…
filter(gapminder, country == "Rwanda", year > 1979)

## # A tibble: 6 x 6
##   country continent  year lifeExp     pop gdpPercap
##    <fctr>    <fctr> <int>   <dbl>   <int>     <dbl>
## 1  Rwanda    Africa  1982  46.218 5507565  881.5706
## 2  Rwanda    Africa  1987  44.020 6349365  847.9912
## 3  Rwanda    Africa  1992  23.599 7290203  737.0686
## 4  Rwanda    Africa  1997  36.087 7212583  589.9445
## 5  Rwanda    Africa  2002  43.413 7852401  785.6538
## 6  Rwanda    Africa  2007  46.242 8860588  863.0885

filter(gapminder, country %in% c("Rwanda", "Afghanistan"))

## # A tibble: 24 x 6
##        country continent  year lifeExp      pop gdpPercap
##         <fctr>    <fctr> <int>   <dbl>    <int>     <dbl>
##  1 Afghanistan      Asia  1952  28.801  8425333  779.4453
##  2 Afghanistan      Asia  1957  30.332  9240934  820.8530
##  3 Afghanistan      Asia  1962  31.997 10267083  853.1007
##  4 Afghanistan      Asia  1967  34.020 11537966  836.1971
##  5 Afghanistan      Asia  1972  36.088 13079460  739.9811
##  6 Afghanistan      Asia  1977  38.438 14880372  786.1134
##  7 Afghanistan      Asia  1982  39.854 12881816  978.0114
##  8 Afghanistan      Asia  1987  40.822 13867957  852.3959
##  9 Afghanistan      Asia  1992  41.674 16317921  649.3414
## 10 Afghanistan      Asia  1997  41.763 22227415  635.3414
## # ... with 14 more rows
…
It is not self-documenting. What is so special about rows 241 through 252?

It is fragile. This line of code will produce different results if someone changes the row order of gapminder, e.g. sorts the data earlier in the script.

filter(gapminder, country == "Canada")

This call explains itself and is fairly robust.

11.3.3 Use select() to subset the data on variables or columns.

Use select() to subset the data on variables or columns. Here’s a conventional call:

select(gapminder, year, lifeExp)

## # A tibble: 1,704 x 2
##     year lifeExp
##    <int>   <dbl>
##  1  1952  28.801
##  2  1957  30.332
##  3  1962  31.997
##  4  1967  34.020
##  5  1972  36.088
##  6  1977  38.438
##  7  1982  39.854
##  8  1987  40.822
##  9  1992  41.674
## 10  1997  41.763
## # ... with 1,694 more rows
…
And finally, the data is always the very first argument of the verb functions.

This set of deliberate design choices, together with the new pipe operator, produces a highly effective, low friction domain-specific language for data analysis.

11.3.6 Use mutate() to add new variables

Imagine we wanted to recover each country’s GDP. After all, the Gapminder data has a variable for population and GDP per capita. Let’s multiply them together.

mutate() is a function that defines and inserts new variables into a tibble. You can refer to existing variables by name.

gapminder %>%
  mutate(gdp = pop * gdpPercap)

## # A tibble: 1,704 x 7
##        country continent  year lifeExp      pop gdpPercap         gdp
##         <fctr>    <fctr> <int>   <dbl>    <int>     <dbl>       <dbl>
##  1 Afghanistan      Asia  1952  28.801  8425333  779.4453  6567086330
##  2 Afghanistan      Asia  1957  30.332  9240934  820.8530  7585448670
##  3 Afghanistan      Asia  1962  31.997 10267083  853.1007  8758855797
##  4 Afghanistan      Asia  1967  34.020 11537966  836.1971  9648014150
##  5 Afghanistan      Asia  1972  36.088 13079460  739.9811  9678553274
##  6 Afghanistan      Asia  1977  38.438 14880372  786.1134 11697659231
##  7 Afghanistan      Asia  1982  39.854 12881816  978.0114 12598563401
##  8 Afghanistan      Asia  1987  40.822 13867957  852.3959 11820990309
##  9 Afghanistan      Asia  1992  41.674 16317921  649.3414 10595901589
## 10 Afghanistan      Asia  1997  41.763 22227415  635.3414 14121995875
## # ... with 1,694 more rows
…
my_gap <- gapminder %>%
  inner_join(ctib, by="year") %>% 
  mutate(gdpPercapRel = gdpPercap / BasegdpPercap,
         BasegdpPercap = NULL)
my_gap

## # A tibble: 1,704 x 7
##        country continent  year lifeExp      pop gdpPercap gdpPercapRel
##         <fctr>    <fctr> <int>   <dbl>    <int>     <dbl>        <dbl>
##  1 Afghanistan      Asia  1952  28.801  8425333  779.4453   0.06856992
##  2 Afghanistan      Asia  1957  30.332  9240934  820.8530   0.06572108
##  3 Afghanistan      Asia  1962  31.997 10267083  853.1007   0.06336874
##  4 Afghanistan      Asia  1967  34.020 11537966  836.1971   0.05201335
##  5 Afghanistan      Asia  1972  36.088 13079460  739.9811   0.03900679
##  6 Afghanistan      Asia  1977  38.438 14880372  786.1134   0.03558542
##  7 Afghanistan      Asia  1982  39.854 12881816  978.0114   0.04271018
##  8 Afghanistan      Asia  1987  40.822 13867957  852.3959   0.03201305
##  9 Afghanistan      Asia  1992  41.674 16317921  649.3414   0.02464959
## 10 Afghanistan      Asia  1997  41.763 22227415  635.3414   0.02194243
## # ... with 1,694 more rows
…
##     Min.  1st Qu.   Median     Mean  3rd Qu.     Max. 
## 0.007236 0.061648 0.171521 0.326659 0.446564 9.534690

The relative GDP per capita numbers are, in general, well below 1. We see that most of the countries covered by this dataset have substantially lower GDP per capita, relative to Canada, across the entire time period.

Remember: Trust No One. Including (especially?) yourself. Always try to find a way to check that you’ve done what meant to. Prepare to be horrified.

11.3.7 Use arrange() to row-order data in a principled way

arrange() reorders the rows in a data frame. Imagine you wanted this data ordered by year then country, as opposed to by country then year.

my_gap %>%
  arrange(year, country)

## # A tibble: 1,704 x 7
##        country continent  year lifeExp      pop  gdpPercap gdpPercapRel
##         <fctr>    <fctr> <int>   <dbl>    <int>      <dbl>        <dbl>
##  1 Afghanistan      Asia  1952  28.801  8425333   779.4453   0.06856992
##  2     Albania    Europe  1952  55.230  1282697  1601.0561   0.14084925
##  3     Algeria    Africa  1952  43.077  9279525  2449.0082   0.21544589
##  4      Angola    Africa  1952  30.015  4232095  3520.6103   0.30971764
##  5   Argentina  Americas  1952  62.485 17876956  5911.3151   0.52003442
##  6   Australia   Oceania  1952  69.120  8691212 10039.5956   0.88321046
##  7     Austria    Europe  1952  66.800  6927772  6137.0765   0.53989527
##  8     Bahrain      Asia  1952  50.939   120447  9867.0848   0.86803421
##  9  Bangladesh      Asia  1952  37.484 46886859   684.2442   0.06019482
## 10     Belgium    Europe  1952  68.000  8730405  8343.1051   0.73396559
## # ... with 1,694 more rows

Or maybe you want just the data from 2007, sorted on life expectancy?

my_gap %>%
  filter(year == 2007) %>%
  arrange(lifeExp)

## # A tibble: 142 x 7
##                     country continent  year lifeExp      pop gdpPercap
##                      <fctr>    <fctr> <int>   <dbl>    <int>     <dbl>
##  1                Swaziland    Africa  2007  39.613  1133066 4513.4806
##  2               Mozambique    Africa  2007  42.082 19951656  823.6856
##  3                   Zambia    Africa  2007  42.384 11746035 1271.2116
##  4             Sierra Leone    Africa  2007  42.568  6144562  862.5408
##  5                  Lesotho    Africa  2007  42.592  2012649 1569.3314
##  6                   Angola    Africa  2007  42.731 12420476 4797.2313
##  7                 Zimbabwe    Africa  2007  43.487 12311143  469.7093
##  8              Afghanistan      Asia  2007  43.828 31889923  974.5803
##  9 Central African Republic    Africa  2007  44.741  4369038  706.0165
## 10                  Liberia    Africa  2007  45.678  3193942  414.5073
## # ... with 132 more rows, and 1 more variables: gdpPercapRel <dbl>

Oh, you’d like to sort on life expectancy in descending order? Then use desc().

my_gap %>%
  filter(year == 2007) %>%
  arrange(desc(lifeExp))

## # A tibble: 142 x 7
##             country continent  year lifeExp       pop gdpPercap
##              <fctr>    <fctr> <int>   <dbl>     <int>     <dbl>
##  1            Japan      Asia  2007  82.603 127467972  31656.07
##  2 Hong Kong, China      Asia  2007  82.208   6980412  39724.98
##  3          Iceland    Europe  2007  81.757    301931  36180.79
##  4      Switzerland    Europe  2007  81.701   7554661  37506.42
##  5        Australia   Oceania  2007  81.235  20434176  34435.37
##  6            Spain    Europe  2007  80.941  40448191  28821.06
##  7           Sweden    Europe  2007  80.884   9031088  33859.75
##  8           Israel      Asia  2007  80.745   6426679  25523.28
##  9           France    Europe  2007  80.657  61083916  30470.02
## 10           Canada  Americas  2007  80.653  33390141  36319.24
## # ... with 132 more rows, and 1 more variables: gdpPercapRel <dbl>

I advise that your analyses NEVER rely on rows or variables being in a specific order. But it’s still true that human beings write the code and the interactive development process can be much nicer if you reorder the rows of your data as you go along. Also, once you are preparing tables for human eyeballs, it is imperative that you step up and take control of row order.

11.3.8 Use rename() to rename variables

The Gapminder use camelCase for variable naming, an alternative convention is snake_case. Let’s rename some variables to use snake case!

my_gap %>%
  rename(life_exp = lifeExp,
         gdp_percap = gdpPercap,
         gdp_percap_rel = gdpPercapRel)

## # A tibble: 1,704 x 7
##        country continent  year life_exp      pop gdp_percap gdp_percap_rel
##         <fctr>    <fctr> <int>    <dbl>    <int>      <dbl>          <dbl>
##  1 Afghanistan      Asia  1952   28.801  8425333   779.4453     0.06856992
##  2 Afghanistan      Asia  1957   30.332  9240934   820.8530     0.06572108
##  3 Afghanistan      Asia  1962   31.997 10267083   853.1007     0.06336874
##  4 Afghanistan      Asia  1967   34.020 11537966   836.1971     0.05201335
##  5 Afghanistan      Asia  1972   36.088 13079460   739.9811     0.03900679
##  6 Afghanistan      Asia  1977   38.438 14880372   786.1134     0.03558542
##  7 Afghanistan      Asia  1982   39.854 12881816   978.0114     0.04271018
##  8 Afghanistan      Asia  1987   40.822 13867957   852.3959     0.03201305
##  9 Afghanistan      Asia  1992   41.674 16317921   649.3414     0.02464959
## 10 Afghanistan      Asia  1997   41.763 22227415   635.3414     0.02194243
## # ... with 1,694 more rows
…
11.3.11 Grouped mutate

Sometimes you don’t want to collapse the \(n\) rows for each group into one row. You want to keep your groups, but compute within them.

11.3.11.1 Computing with group-wise summaries

Let’s make a new variable that is the years of life expectancy gained (lost) relative to 1952, for each individual country. We group by country and use mutate() to make a new variable. The first() function extracts the first value from a vector. Notice that first() is operating on the vector of life expectancies within each country group.

my_gap %>% 
  group_by(country) %>% 
  select(country, year, lifeExp) %>% 
  mutate(lifeExp_gain = lifeExp - first(lifeExp)) %>% 
  filter(year < 1963)

## # A tibble: 426 x 4
## # Groups:   country [142]
##        country  year lifeExp lifeExp_gain
##         <fctr> <int>   <dbl>        <dbl>
##  1 Afghanistan  1952  28.801        0.000
##  2 Afghanistan  1957  30.332        1.531
##  3 Afghanistan  1962  31.997        3.196
##  4     Albania  1952  55.230        0.000
##  5     Albania  1957  59.280        4.050
##  6     Albania  1962  64.820        9.590
##  7     Algeria  1952  43.077        0.000
##  8     Algeria  1957  45.685        2.608
##  9     Algeria  1962  48.303        5.226
## 10      Angola  1952  30.015        0.000
## # ... with 416 more rows
…
We see that (min = Afghanistan, max = Japan) is the most frequent result, but Cambodia and Israel pop up at least once each as the min or max, respectively. That table should make you impatient for our upcoming work on tidying and reshaping data! Wouldn’t it be nice to have one row per year?

How did that actually work? First, I store and view a partial that leaves off the filter() statement. All of these operations should be familiar.

asia <- my_gap %>%
  filter(continent == "Asia") %>%
  select(year, country, lifeExp) %>%
  group_by(year)
asia

## # A tibble: 396 x 3
## # Groups:   year [12]
##     year     country lifeExp
##    <int>      <fctr>   <dbl>
##  1  1952 Afghanistan  28.801
##  2  1957 Afghanistan  30.332
##  3  1962 Afghanistan  31.997
##  4  1967 Afghanistan  34.020
##  5  1972 Afghanistan  36.088
##  6  1977 Afghanistan  38.438
##  7  1982 Afghanistan  39.854
##  8  1987 Afghanistan  40.822
##  9  1992 Afghanistan  41.674
## 10  1997 Afghanistan  41.763
## # ... with 386 more rows
…
# recode race (HH_RACE column) according to data dictionary: http://nhts.ornl.gov/tables09/CodebookPage.aspx?id=951
dd %>% mutate(hh_race_str=recode(HH_RACE, 
                                 "01"="White",
                                 "02"="African American, Black",
                                 "03"="Asian Only",
                                 "04"="American Indian, Alaskan Native",
                                 "05"="Native Hawaiian, other Pacific",
                                 "06"="Multiracial",
                                 "07"="Hispanic/Mexican",
                                 "97"="Other specify",
                                 .default = as.character(NA) # any unspecified values would be assgined NA
                                 )) %>% 
  select(HH_RACE, hh_race_str)

## # A tibble: 304 x 2
##    HH_RACE hh_race_str
##      <chr>       <chr>
##  1      01       White
##  2      01       White
##  3      01       White
##  4      01       White
##  5      01       White
##  6      01       White
##  7      01       White
##  8      01       White
##  9      01       White
## 10      01       White
## # ... with 294 more rows

a logical condition: if_else

# code driving & non-driving based on travel modes (TRPTRANS column) data dictionary: http://nhts.ornl.gov/tables09/CodebookPage.aspx?id=1084
dd %>% mutate(driving=ifelse(TRPTRANS %in% c("01", "02", "03", "04", "05", "06", "07"), 1, 0),
              driving=ifelse(TRPTRANS %in% c("-1", "-7", "-8", "-9"), NA, driving) # retain missing values as NA
             ) %>% 
  select(TRPTRANS, driving)

## # A tibble: 304 x 2
##    TRPTRANS driving
##       <chr>   <dbl>
##  1       03       1
##  2       03       1
##  3       03       1
##  4       03       1
##  5       03       1
##  6       03       1
##  7       03       1
##  8       03       1
##  9       03       1
## 10       03       1
## # ... with 294 more rows

multiple logical conditions: case_when

# code driving & non-driving based on travel modes (TRPTRANS column) data dictionary: http://nhts.ornl.gov/tables09/CodebookPage.aspx?id=1084 use case_when
dd %>% mutate(driving=case_when(
  TRPTRANS %in% c("01", "02", "03", "04", "05", "06", "07") ~ 1, 
  TRPTRANS %in% c("-1", "-7", "-8", "-9") ~ as.double(NA), # retain missing values as NA
  TRUE ~ 0)) %>% 
  select(TRPTRANS, driving)

## # A tibble: 304 x 2
##    TRPTRANS driving
##       <chr>   <dbl>
##  1       03       1
##  2       03       1
##  3       03       1
##  4       03       1
##  5       03       1
##  6       03       1
##  7       03       1
##  8       03       1
##  9       03       1
## 10       03       1
## # ... with 294 more rows
…
