Introduction to Data Science for Transportation Researchers, Planners, and Engineers
…
13.3.5 General approach: nesting

We use nesting as an extension of grouping in order to support more general group-wise computation. The collapse to a single row per group happens right away here, unlike the simple grouping above. When you nest data, the non-grouping variables are packaged into group-specific data frames that are held in a special variable called a list-column. You then apply your computation to the components of this list, i.e. the data frames. List-columns take a little getting used to, but the payoff is huge.

Let’s get ready to fit a model for each country in the Gapminder dataset. First we group, as above, and then nest. We group by country and continent in order to keep those two variables “on the outside”.

(gap_nested <- gapminder %>% 
   group_by(continent, country) %>% 
   nest())

## # A tibble: 142 x 3
##    continent     country              data
##       <fctr>      <fctr>            <list>
##  1      Asia Afghanistan <tibble [12 x 4]>
##  2    Europe     Albania <tibble [12 x 4]>
##  3    Africa     Algeria <tibble [12 x 4]>
##  4    Africa      Angola <tibble [12 x 4]>
##  5  Americas   Argentina <tibble [12 x 4]>
##  6   Oceania   Australia <tibble [12 x 4]>
##  7    Europe     Austria <tibble [12 x 4]>
##  8      Asia     Bahrain <tibble [12 x 4]>
##  9      Asia  Bangladesh <tibble [12 x 4]>
## 10    Europe     Belgium <tibble [12 x 4]>
## # ... with 132 more rows
…
So, how do we run, i.e. scale this up to all countries? And where do we put these fitted models? We’ll use purrr::map() inside mutate(), meaning we store the models inside gap_nested in another list-column.

(gap_nested <- gap_nested %>% 
   mutate(fit = purrr::map(data, le_vs_yr)))

## # A tibble: 142 x 4
##    continent     country              data      fit
##       <fctr>      <fctr>            <list>   <list>
##  1      Asia Afghanistan <tibble [12 x 4]> <S3: lm>
##  2    Europe     Albania <tibble [12 x 4]> <S3: lm>
##  3    Africa     Algeria <tibble [12 x 4]> <S3: lm>
##  4    Africa      Angola <tibble [12 x 4]> <S3: lm>
##  5  Americas   Argentina <tibble [12 x 4]> <S3: lm>
##  6   Oceania   Australia <tibble [12 x 4]> <S3: lm>
##  7    Europe     Austria <tibble [12 x 4]> <S3: lm>
##  8      Asia     Bahrain <tibble [12 x 4]> <S3: lm>
##  9      Asia  Bangladesh <tibble [12 x 4]> <S3: lm>
## 10    Europe     Belgium <tibble [12 x 4]> <S3: lm>
## # ... with 132 more rows
…
library(broom)
tidy(gap_nested$fit[[1]])

##             term   estimate  std.error statistic      p.value
## 1    (Intercept) 29.3566375 0.69898128  41.99918 1.404235e-12
## 2 I(year - 1950)  0.2753287 0.02045093  13.46289 9.835213e-08

We get a two row data frame, one with results for the intercept and one for the slope. This is much more approachable than fitted lm objects!

Apply tidy() to the model for each country with the same purrr::map() inside mutate() strategy as above.

(gap_nested <- gap_nested %>% 
  mutate(tidy = purrr::map(fit, tidy)))

## # A tibble: 142 x 5
##    continent     country              data      fit                 tidy
##       <fctr>      <fctr>            <list>   <list>               <list>
##  1      Asia Afghanistan <tibble [12 x 4]> <S3: lm> <data.frame [2 x 5]>
##  2    Europe     Albania <tibble [12 x 4]> <S3: lm> <data.frame [2 x 5]>
##  3    Africa     Algeria <tibble [12 x 4]> <S3: lm> <data.frame [2 x 5]>
##  4    Africa      Angola <tibble [12 x 4]> <S3: lm> <data.frame [2 x 5]>
##  5  Americas   Argentina <tibble [12 x 4]> <S3: lm> <data.frame [2 x 5]>
##  6   Oceania   Australia <tibble [12 x 4]> <S3: lm> <data.frame [2 x 5]>
##  7    Europe     Austria <tibble [12 x 4]> <S3: lm> <data.frame [2 x 5]>
##  8      Asia     Bahrain <tibble [12 x 4]> <S3: lm> <data.frame [2 x 5]>
##  9      Asia  Bangladesh <tibble [12 x 4]> <S3: lm> <data.frame [2 x 5]>
## 10    Europe     Belgium <tibble [12 x 4]> <S3: lm> <data.frame [2 x 5]>
## # ... with 132 more rows

The last step is now to simplify, preferably back to a normal tibble. We do this by retaining variables that are amenable to simplification and using unnest(), thus completing the circle.

(gap_coefs <- gap_nested %>% 
   select(continent, country, tidy) %>% 
   unnest(tidy))

## # A tibble: 284 x 7
##    continent     country           term   estimate   std.error  statistic
##       <fctr>      <fctr>          <chr>      <dbl>       <dbl>      <dbl>
##  1      Asia Afghanistan    (Intercept) 29.3566375 0.698981278  41.999176
##  2      Asia Afghanistan I(year - 1950)  0.2753287 0.020450934  13.462890
##  3    Europe     Albania    (Intercept) 58.5597618 1.133575812  51.659325
##  4    Europe     Albania I(year - 1950)  0.3346832 0.033166387  10.091036
##  5    Africa     Algeria    (Intercept) 42.2364149 0.756269040  55.848399
##  6    Africa     Algeria I(year - 1950)  0.5692797 0.022127070  25.727749
##  7    Africa      Angola    (Intercept) 31.7079741 0.804287463  39.423683
##  8    Africa      Angola I(year - 1950)  0.2093399 0.023532003   8.895964
##  9  Americas   Argentina    (Intercept) 62.2250191 0.167091314 372.401279
## 10  Americas   Argentina I(year - 1950)  0.2317084 0.004888791  47.395847
## # ... with 274 more rows, and 1 more variables: p.value <dbl>
…
Reflect on how you would have obtained a data frame of country-specific intercepts and slopes from a regression of life expectancy on year. Did you know any approaches for solving this problem? If no, then rejoice that you now have one! If yes, does the approach outlined here seem simpler?

List-columns take some getting used to, but they are a required component of the strategy laid out above for general-purpose split-apply-combine.

13.3.10 Enjoy the payoff of your work

Let’s celebrate by exploring the estimated slopes and intercepts a bit. First we recode the variable corresponding to “intercept” vs “slope”.

(gap_coefs <- gap_coefs %>%
   mutate(term = recode(term,
                        `(Intercept)` = "intercept",
                        `I(year - 1950)` = "slope")))

## # A tibble: 284 x 7
##    continent     country      term   estimate   std.error  statistic
##       <fctr>      <fctr>     <chr>      <dbl>       <dbl>      <dbl>
##  1      Asia Afghanistan intercept 29.3566375 0.698981278  41.999176
##  2      Asia Afghanistan     slope  0.2753287 0.020450934  13.462890
##  3    Europe     Albania intercept 58.5597618 1.133575812  51.659325
##  4    Europe     Albania     slope  0.3346832 0.033166387  10.091036
##  5    Africa     Algeria intercept 42.2364149 0.756269040  55.848399
##  6    Africa     Algeria     slope  0.5692797 0.022127070  25.727749
##  7    Africa      Angola intercept 31.7079741 0.804287463  39.423683
##  8    Africa      Angola     slope  0.2093399 0.023532003   8.895964
##  9  Americas   Argentina intercept 62.2250191 0.167091314 372.401279
## 10  Americas   Argentina     slope  0.2317084 0.004888791  47.395847
## # ... with 274 more rows, and 1 more variables: p.value <dbl>

Due to the way we parametrized the model, the intercepts correspond to expected life expectancy in 1950. These numbers should be plausible as human life expectancies. The slopes correspond to change in expected life expectancy from one year to the next. We expect positive numbers to dominate, but they’ll probably less than one. A reshaped version of the estimates, gap_ests, is handy for numerical summarization and visualization.

(gap_ests <- gap_coefs %>% 
   select(continent:estimate) %>% 
   spread(key = term, value = estimate))

## # A tibble: 142 x 4
##    continent                  country intercept      slope
##  *    <fctr>                   <fctr>     <dbl>      <dbl>
##  1    Africa                  Algeria  42.23641 0.56927972
##  2    Africa                   Angola  31.70797 0.20933986
##  3    Africa                    Benin  38.92005 0.33423287
##  4    Africa                 Botswana  52.80778 0.06066853
##  5    Africa             Burkina Faso  33.95674 0.36397483
##  6    Africa                  Burundi  40.27037 0.15413427
##  7    Africa                 Cameroon  40.74917 0.25014685
##  8    Africa Central African Republic  38.44170 0.18390559
##  9    Africa                     Chad  39.30288 0.25324406
## 10    Africa                  Comoros  39.09522 0.45039091
## # ... with 132 more rows
…
